{
	"info": {
		"_postman_id": "8bec1f54-f523-498a-9eff-0aee0d8a2a27",
		"name": "session28-29",
		"schema": "https://schema.getpostman.com/json/collection/v2.1.0/collection.json"
	},
	"item": [
		{
			"name": "GET IN EXPRESS",
			"request": {
				"method": "GET",
				"header": [],
				"url": {
					"raw": "localhost:4000",
					"host": [
						"localhost"
					],
					"port": "4000"
				}
			},
			"response": []
		},
		{
			"name": "GREETING",
			"request": {
				"method": "GET",
				"header": [],
				"url": {
					"raw": "localhost:4000/greeting",
					"host": [
						"localhost"
					],
					"port": "4000",
					"path": [
						"greeting"
					]
				}
			},
			"response": []
		},
		{
			"name": "GET ALL USERS",
			"request": {
				"method": "GET",
				"header": [],
				"url": {
					"raw": "localhost:4000/users",
					"host": [
						"localhost"
					],
					"port": "4000",
					"path": [
						"users"
					]
				}
			},
			"response": []
		},
		{
			"name": "GET SINGLE USER",
			"request": {
				"method": "GET",
				"header": [],
				"url": {
					"raw": "localhost:4000/users/getSingleUser/0",
					"host": [
						"localhost"
					],
					"port": "4000",
					"path": [
						"users",
						"getSingleUser",
						"0"
					]
				}
			},
			"response": []
		},
		{
			"name": "ADD USER",
			"request": {
				"method": "POST",
				"header": [],
				"body": {
					"mode": "raw",
					"raw": "{\r\n    \"username\" : \"MMadrigal\",\r\n    \"email\" : \"mirabel@gmail.com\",\r\n    \"password\" : \"noGift\"\r\n}",
					"options": {
						"raw": {
							"language": "json"
						}
					}
				},
				"url": {
					"raw": "localhost:4000/users",
					"host": [
						"localhost"
					],
					"port": "4000",
					"path": [
						"users"
					]
				}
			},
			"response": []
		},
		{
			"name": "UPDATE PASSWORD",
			"request": {
				"method": "PUT",
				"header": [],
				"body": {
					"mode": "raw",
					"raw": "{\r\n    \"password\" : \"newPassCode\"\r\n}",
					"options": {
						"raw": {
							"language": "json"
						}
					}
				},
				"url": {
					"raw": "localhost:4000/users/0",
					"host": [
						"localhost"
					],
					"port": "4000",
					"path": [
						"users",
						"0"
					]
				}
			},
			"response": []
		},
		{
			"name": "DELETE USER",
			"request": {
				"method": "DELETE",
				"header": [],
				"url": {
					"raw": "localhost:4000/users",
					"host": [
						"localhost"
					],
					"port": "4000",
					"path": [
						"users"
					]
				}
			},
			"response": []
		},
		{
			"name": "GET ALL ITEMS",
			"request": {
				"method": "GET",
				"header": [],
				"url": {
					"raw": "localhost:4000/items",
					"host": [
						"localhost"
					],
					"port": "4000",
					"path": [
						"items"
					]
				}
			},
			"response": []
		},
		{
			"name": "ADD A NEW ITEM",
			"request": {
				"method": "POST",
				"header": [],
				"body": {
					"mode": "raw",
					"raw": "{\r\n    \"name\" : \"daisy\",\r\n    \"price\" : 100,\r\n    \"isActive\" : true\r\n}",
					"options": {
						"raw": {
							"language": "json"
						}
					}
				},
				"url": {
					"raw": "localhost:4000/items",
					"host": [
						"localhost"
					],
					"port": "4000",
					"path": [
						"items"
					]
				}
			},
			"response": []
		},
		{
			"name": "UPDATE ITEM PRICE",
			"request": {
				"method": "PUT",
				"header": [],
				"body": {
					"mode": "raw",
					"raw": "{\r\n    \"price\" : 500\r\n}",
					"options": {
						"raw": {
							"language": "json"
						}
					}
				},
				"url": {
					"raw": "localhost:4000/items/0",
					"host": [
						"localhost"
					],
					"port": "4000",
					"path": [
						"items",
						"0"
					]
				}
			},
			"response": []
		},
		{
			"name": "GET SINGLE ITEM",
			"request": {
				"method": "GET",
				"header": [],
				"url": {
					"raw": "localhost:4000/items/getSingleItem/1",
					"host": [
						"localhost"
					],
					"port": "4000",
					"path": [
						"items",
						"getSingleItem",
						"1"
					]
				}
			},
			"response": []
		},
		{
			"name": "ARCHIVING ITEM",
			"request": {
				"method": "PUT",
				"header": [],
				"url": {
					"raw": "localhost:4000/items/archive/0",
					"host": [
						"localhost"
					],
					"port": "4000",
					"path": [
						"items",
						"archive",
						"0"
					]
				}
			},
			"response": []
		},
		{
			"name": "UNARCHIVING ITEM",
			"request": {
				"method": "PUT",
				"header": [],
				"url": {
					"raw": "localhost:4000/items/unarchive/1",
					"host": [
						"localhost"
					],
					"port": "4000",
					"path": [
						"items",
						"unarchive",
						"1"
					]
				}
			},
			"response": []
		}
	]
}